ggheatmap: Tile-able heatmaps that play well with ggplots • ggheatmap
…
Using tables with more variables

If transpose our original table and extended it with new variables, we can unlock more features using ggheatmap.

sample_annot <- tcgaBLCA_ex$sample_annot %>% as_tibble()
genes <- rownames(gexp)
tcgaBLCA_tb <- gexp %>%
  t() %>%
  as.data.frame() %>%
  rownames_to_column("sample") %>%
  left_join(sample_annot, by = "sample") %>%
  tibble() %>%
  group_by(consensusClass)
tcgaBLCA_tb
#> # A tibble: 100 x 79
#> # Groups:   consensusClass [6]
#>    sample        FBP1 ACER2  PKHD1 CAPN5 S100P TMEM51 DHRS2 CYP4F22 SPINK1 ACSL5
#>    <chr>        <dbl> <dbl>  <dbl> <dbl> <dbl>  <dbl> <dbl>   <dbl>  <dbl> <dbl>
#>  1 TCGA-XF-A9S…  3.05 0.760 1.03    3.19  7.25   4.70 3.55   0.0458  8.07   5.22
#>  2 TCGA-BL-A13…  2.54 4.44  0.250   2.98  4.28   2.69 8.25   1.73    3.90   4.77
#>  3 TCGA-C4-A0F…  1.53 2.04  3.09    2.47  4.09   3.34 4.32   0.226   1.80   1.61
#>  4 TCGA-BT-A20…  5.98 5.05  1.22    4.92  7.03   4.97 8.03   5.10    8.85   6.83
#>  5 TCGA-GV-A40…  6.03 3.95  2.84    7.06  6.68   5.81 4.73   5.15    9.80   3.99
#>  6 TCGA-HQ-A2O…  5.56 5.36  3.59    5.41  7.05   5.54 6.58   1.12    7.46   6.39
#>  7 TCGA-XF-A8H…  8.32 5.76  3.46    6.90  8.26   5.50 9.91   7.05   11.2    6.65
#>  8 TCGA-DK-A2I…  7.42 4.78  1.18    5.45  7.82   4.89 8.41   5.38    8.42   7.50
#>  9 TCGA-UY-A78…  6.32 1.55  0.0317  1.64  7.23   5.51 8.22   1.82    0.474  4.05
#> 10 TCGA-BL-A13…  2.50 0.438 0.0181  3.88  1.16   4.88 0.696  0.451   0.204  5.02
#> # … with 90 more rows, and 68 more variables: ST3GAL5 <dbl>, TBX3 <dbl>,
#> #   HPGD <dbl>, TGFBR3 <dbl>, FAM3B <dbl>, ATP8B1 <dbl>, RNF128 <dbl>,
#> #   SNCG <dbl>, SLC44A3 <dbl>, GATA3 <dbl>, PPARG <dbl>, ICA1 <dbl>,
#> #   GGT6 <dbl>, RAB11A <dbl>, TRAK1 <dbl>, VSIG2 <dbl>, BCAS1 <dbl>,
#> #   RAB15 <dbl>, FAM174B <dbl>, SLC29A3 <dbl>, FOXA1 <dbl>, GOLT1A <dbl>,
#> #   PPFIBP2 <dbl>, DENND2D <dbl>, ACAA1 <dbl>, DNAJA4 <dbl>, HMGCS2 <dbl>,
#> #   CYP2J2 <dbl>, VSNL1 <dbl>, KRT14 <dbl>, TGM1 <dbl>, SERPINB4 <dbl>,
#> #   GSDMC <dbl>, KRT6A <dbl>, LGALS7 <dbl>, SFN <dbl>, SPRR2A <dbl>,
#> #   C12orf54 <dbl>, SPRR2D <dbl>, HOXD11 <dbl>, KRT6C <dbl>, KRT5 <dbl>,
…
